EDA_Data Viz
…
Group the data by DATE, and use the summarize() function to calculate the daily total rainfall and snowfall.

by_date <- seoul_bike_sharing %>%
    group_by(DATE) %>%
    summarize(Tot_Rain = sum(RAINFALL), Tot_Snow = sum(SNOWFALL))

by_date

## # A tibble: 137 x 3
##    DATE       Tot_Rain Tot_Snow
##    <date>        <dbl>    <dbl>
##  1 2020-01-01      0        0  
##  2 2020-01-02      0       21.7
##  3 2020-01-03      2.5      0  
##  4 2020-01-04      0        0  
##  5 2020-01-05      0        0  
##  6 2020-01-06      0        0  
##  7 2020-01-07     81        0  
##  8 2020-01-08      0        0  
##  9 2020-01-09      0        0  
## 10 2020-01-10      0        0  
## # ... with 127 more rows
…
Determine how many days had snowfall.

Snow_days <- seoul_bike_sharing %>%
    group_by(DATE)

   count_days <- summarize(Snow_days, count = n(),Tot_Snow = SNOWFALL, na.rm = TRUE)

## `summarise()` has grouped output by 'DATE'. You can override using the `.groups` argument.

   count_days <- filter(count_days, Tot_Snow > 0)
   count_days

## # A tibble: 443 x 4
## # Groups:   DATE [9]
##    DATE       count Tot_Snow na.rm
##    <date>     <int>    <dbl> <lgl>
##  1 2020-01-02    24      1.6 TRUE 
##  2 2020-01-02    24      1.6 TRUE 
##  3 2020-01-02    24      1.6 TRUE 
##  4 2020-01-02    24      1.6 TRUE 
##  5 2020-01-02    24      1.6 TRUE 
##  6 2020-01-02    24      1.6 TRUE 
##  7 2020-01-02    24      1.6 TRUE 
##  8 2020-01-02    24      1.6 TRUE 
##  9 2020-01-02    24      1.6 TRUE 
## 10 2020-01-02    24      1.6 TRUE 
## # ... with 433 more rows
